{
  "name": "comments-api",
  "description": "Basic commenting API",
  "author": "José Ramón Blanco Rey",
  "title": "Comments API",
  "router": {
    "prefix": "/api",
    "entity": "/comments"
  },
  "controller": {
    "name": "CommentsController",
    "mandatoryPostParams": ["parentItemId", "createdBy", "body"],
    "methods": {
      "get": "getComments",
      "getById": "getCommentById",
      "post": "crateNewComment",
      "put": "updateComment",
      "delete": "deleteComment"
    }
  },
  "mongo": {
    "model": "CommentModel"
  }
}